// Jest Snapshot v1, https://goo.gl/fbAQLP

exports[`Feedback view Runs the render method and checks the returned data is a card instance 1`] = `
Object {
  "cardActions": Array [],
  "header": Object {
    "imageUrl": "https://partner-engineering-cdn.atl-paas.net/icons/success.png",
    "title": "Thank you for the feedback",
  },
  "sections": Array [
    Object {
      "widgets": Array [
        Object {
          "text": "Your feedback has been submitted.",
        },
        Object {
          "buttons": Array [
            Object {
              "textButton": Object {
                "onClick": Object {
                  "action": Object {
                    "actionMethodName": "dispatchAction",
                    "parameters": Object {
                      "actionName": "addon.NavigateBack",
                      "args": "{}",
                    },
                  },
                },
                "text": "Done",
              },
            },
          ],
        },
      ],
    },
  ],
}
`;
