// Jest Snapshot v1, https://goo.gl/fbAQLP

exports[`Bitbucket onboarding view Renders Bitbucket onboarding card 1`] = `
Object {
  "cardActions": Array [],
  "header": Object {
    "imageUrl": "https://partner-engineering-cdn.atl-paas.net/bitbucket-logo-blue.png",
    "subTitle": "Step 2 of 2",
    "title": "Connect Bitbucket Cloud",
  },
  "sections": Array [
    Object {
      "widgets": Array [
        Object {
          "url": "https://partner-engineering-cdn.atl-paas.net/onboarding-bitbucket.png",
        },
        Object {
          "text": "View, merge, and comment on a pull request, or re-run a failed build, all without leaving your inbox.",
        },
        Object {
          "buttons": Array [
            Object {
              "textButton": Object {
                "onClick": Object {
                  "openLink": Object {
                    "url": "authUrl",
                  },
                },
                "text": "Connect Bitbucket Cloud",
              },
            },
          ],
        },
        Object {
          "keyValue": Object {
            "content": "No thanks, I don't use Bitbucket Cloud",
            "onClick": Object {
              "action": Object {
                "actionMethodName": "dispatchAction",
                "parameters": Object {
                  "actionName": "addon.Onboarding",
                  "args": "{\\"onboardingState\\":\\"done\\"}",
                },
              },
            },
          },
        },
      ],
    },
  ],
}
`;
