// Jest Snapshot v1, https://goo.gl/fbAQLP

exports[`View Issue Comment Runs the render method and checks the data of used services 1`] = `
Object {
  "cardActions": Array [
    Object {
      "actionLabel": "Open in Jira",
      "onClick": Object {
        "openLink": Object {
          "url": "https://dummy-domain.atlassian.net/browse/DEV-11?page=com.atlassian.jira.plugin.system.issuetabpanels%3Acomment-tabpanel#activitymodule",
        },
      },
    },
  ],
  "header": Object {
    "subTitle": "DEV-11",
    "title": "Update task status by dragging and dropping from column to column >> Try dragging this task to \\"Done\\"",
  },
  "sections": Array [
    Object {
      "header": "<b>Comment</b>",
      "widgets": Array [
        Object {
          "keyValue": Object {
            "content": "<br/>test10<br/>",
            "multiline": true,
            "topLabel": "John Doe in 2 months",
          },
        },
      ],
    },
    Object {
      "widgets": Array [
        Object {
          "buttons": Array [
            Object {
              "textButton": Object {
                "onClick": Object {
                  "openLink": Object {
                    "url": "https://dummy-domain.atlassian.net/browse/DEV-11?page=com.atlassian.jira.plugin.system.issuetabpanels%3Acomment-tabpanel#activitymodule",
                  },
                },
                "text": "View Comment In Jira",
              },
            },
          ],
        },
      ],
    },
  ],
}
`;
