// Jest Snapshot v1, https://goo.gl/fbAQLP

exports[`View Issue/EditForm Should check that the issue editForm card data is correct 1`] = `
Object {
  "cardActions": Array [],
  "header": Object {
    "imageUrl": "https://partner-engineering-cdn.atl-paas.net/icons/edit.png",
    "title": "Edit issue",
  },
  "sections": Array [
    Object {
      "widgets": Array [
        Object {
          "hint": "Required field",
          "multiline": true,
          "text": "summary",
          "title": "Summary",
          "value": "Update task status by dragging and dropping from column to column >> Try dragging this task to \\"Done\\"",
        },
        Object {
          "items": Array [
            Object {
              "selected": false,
              "text": "Highest",
              "value": "1",
            },
            Object {
              "selected": false,
              "text": "High",
              "value": "2",
            },
            Object {
              "selected": false,
              "text": "Medium",
              "value": "3",
            },
            Object {
              "selected": true,
              "text": "Low",
              "value": "4",
            },
            Object {
              "selected": false,
              "text": "Lowest",
              "value": "5",
            },
          ],
          "text": "priority",
          "title": "Priority",
          "type": "DROPDOWN",
        },
        Object {
          "items": Array [
            Object {
              "selected": false,
              "text": "To do",
              "value": "11",
            },
            Object {
              "selected": true,
              "text": "In progress",
              "value": "21",
            },
            Object {
              "selected": false,
              "text": "Done",
              "value": "31",
            },
          ],
          "text": "transition",
          "title": "Status",
          "type": "DROPDOWN",
        },
        Object {
          "keyValue": Object {
            "content": "Atlassian OnDemand  [Administrator]",
            "iconUrl": "https://secure.gravatar.com/488ca10d8ac50e446e910fd7f35f260c?s=48&d=https%3A%2F%2Fsecure.gravatar.com%2Favatar%2F488ca10d8ac50e446e910fd7f35f260c%3Fd%3Dmm%26s%3D48%26noRedirect%3Dtrue",
            "onClick": Object {
              "action": Object {
                "actionMethodName": "dispatchAction",
                "parameters": Object {
                  "actionName": "jira.user.Show",
                  "args": "{\\"instanceHost\\":\\"main-jira-in-the-w0rld.atlassian.net\\",\\"userName\\":\\"admin\\"}",
                },
              },
            },
            "topLabel": "Assignee",
          },
        },
        Object {
          "hint": "Enter email address or name",
          "multiline": true,
          "suggestionsAction": Action {
            "_data": Object {
              "actionMethodName": "dispatchAction",
              "parameters": Object {
                "actionName": "jira.user.Search",
                "args": "{\\"instanceHost\\":\\"main-jira-in-the-w0rld.atlassian.net\\",\\"projectId\\":\\"10000\\"}",
              },
            },
          },
          "text": "assigneeEmail",
          "title": "New assignee",
        },
        Object {
          "multiline": true,
          "text": "description",
          "title": "Description",
          "value": "*Lorem Ipsum* is simply dummy text of the printing and typesetting industry. Lorem Ipsum has been the industry's standard dummy text ever since the 1500s, when an unknown printer took a galley of type and scrambled it to make a type specimen book. It has survived not only five centuries, but also the leap into electronic typesetting, remaining essentially unchanged. It was popularised in the 1960s with the release of Letraset sheets containing Lorem Ipsum passages, and more recently with desktop publishing software like Aldus PageMaker including versions of Lorem Ipsum.",
        },
        Object {
          "buttons": Array [
            Object {
              "textButton": Object {
                "onClick": Object {
                  "action": Object {
                    "actionMethodName": "dispatchAction",
                    "parameters": Object {
                      "actionName": "jira.issue.editForm.Save",
                      "args": "{\\"instanceHost\\":\\"main-jira-in-the-w0rld.atlassian.net\\",\\"issueKey\\":\\"DEV-11\\"}",
                    },
                  },
                },
                "text": "Save Changes",
              },
            },
            Object {
              "textButton": Object {
                "onClick": Object {
                  "action": Object {
                    "actionMethodName": "dispatchAction",
                    "parameters": Object {
                      "actionName": "addon.NavigateBack",
                      "args": "{}",
                    },
                  },
                },
                "text": "Cancel",
              },
            },
          ],
        },
      ],
    },
  ],
}
`;
