// Jest Snapshot v1, https://goo.gl/fbAQLP

exports[`Controller bitbucket.issue.Show Should throw an error while fetching issue attachments 1`] = `""`;

exports[`Controller bitbucket.issue.Show Should throw an error while fetching issue status 1`] = `""`;
