{
  "pagelen": 10,
  "values": [{
    "type": "issue_attachment",
    "name": "687474703a2f2f692e716b6d652e6d652f3375373074392e6a7067.jpeg",
    "links": {
      "self": {
        "href": ["https://api.bitbucket.org/2.0/repositories/maxYokha/test-repo/issues/3/attachments/687474703a2f2f692e716b6d652e6d652f3375373074392e6a7067.jpeg"]
      }
    }
  }],
  "page": 1,
  "size": 1
}
