{
    "links": {
        "self": {
        "href": "https://api.bitbucket.org/2.0/repositories/test-team/test-repo"
        },
        "html": {
        "href": "https://bitbucket.org/test-team/test-repo"
        },
        "avatar": {
        "href": "https://bitbucket.org/test-team/test-repo/avatar/32/"
        }
    },
    "display_name": "test-team",
    "username": "test-user"
}