{
  "username": "test-user",
  "type": "user",
  "website": "",
  "display_name": "Test User",
  "uuid": "{test-user-id}",
  "links": {
    "hooks": {
      "href": "https://api.bitbucket.org/2.0/users/test-user/hooks"
    },
    "self": {
      "href": "https://api.bitbucket.org/2.0/users/test-user"
    },
    "repositories": {
      "href": "https://api.bitbucket.org/2.0/repositories/test-user"
    },
    "html": {
      "href": "https://bitbucket.org/test-user/"
    },
    "followers": {
      "href": "https://api.bitbucket.org/2.0/users/test-user/followers"
    },
    "avatar": {
      "href": "https://bitbucket.org/account/test-user/avatar/32/"
    },
    "following": {
      "href": "https://api.bitbucket.org/2.0/users/test-user/following"
    },
    "snippets": {
      "href": "https://api.bitbucket.org/2.0/snippets/test-user"
    }
  },
  "created_on": "2010-07-07T05:55:44+00:00",
  "is_staff": false,
  "location": null
}
