{
  "baseUrl": "https://test-jira.atlassian.net",
  "buildDate": "2018-08-13T10:00:00.000+1000",
  "buildNumber": 100090,
  "deploymentType": "Cloud",
  "scmInfo": "1234556678",
  "serverTime": "2018-08-13T19:36:41.341+1000",
  "serverTitle": "JIRA - Test",
  "version": "1001.0.0-SNAPSHOT",
  "versionNumbers": [
    1001,
    0,
    0
  ]
}
