// Jest Snapshot v1, https://goo.gl/fbAQLP

exports[`View Pull Request Comment Runs the render method and checks the data of used services 1`] = `
Object {
  "cardActions": Array [
    Object {
      "actionLabel": "Open in Bitbucket",
      "onClick": Object {
        "openLink": Object {
          "url": "https://bitbucket.org/someOwner/test-repo/pull-requests/3/_/diff#comment-33333333",
        },
      },
    },
  ],
  "header": Object {
    "subTitle": "Pull request #1338",
    "title": "Test pull request",
  },
  "sections": Array [
    Object {
      "widgets": Array [
        Object {
          "keyValue": Object {
            "bottomLabel": "README.md on line: 2",
            "content": "<br/>Important improvement!!!<br/>",
            "multiline": true,
            "topLabel": "Some Owner 14 days ago",
          },
        },
        Object {
          "multiline": true,
          "text": "content",
          "title": "Add a comment...",
        },
        Object {
          "buttons": Array [
            Object {
              "textButton": Object {
                "onClick": Object {
                  "action": Object {
                    "actionMethodName": "dispatchAction",
                    "parameters": Object {
                      "actionName": "bitbucket.pullRequest.comment.Reply",
                      "args": "{\\"pullRequest\\":{\\"merge_commit\\":{\\"hash\\":\\"db92b33f41e7\\",\\"links\\":{\\"self\\":{\\"href\\":\\"https://api.bitbucket.org/2.0/repositories/test-team/test-repo/commit/db92b33f41e7\\"}}},\\"description\\":\\"\\",\\"links\\":{\\"decline\\":{\\"href\\":\\"https://api.bitbucket.org/2.0/repositories/test-team/test-repo/pullrequests/1338/decline\\"},\\"commits\\":{\\"href\\":\\"https://api.bitbucket.org/2.0/repositories/test-team/test-repo/pullrequests/1338/commits\\"},\\"self\\":{\\"href\\":\\"https://api.bitbucket.org/2.0/repositories/test-team/test-repo/pullrequests/1338\\"},\\"comments\\":{\\"href\\":\\"https://api.bitbucket.org/2.0/repositories/test-team/test-repo/pullrequests/1338/comments\\"},\\"merge\\":{\\"href\\":\\"https://api.bitbucket.org/2.0/repositories/test-team/test-repo/pullrequests/1338/merge\\"},\\"html\\":{\\"href\\":\\"https://bitbucket.org/test-team/test-repo/pull-requests/1338\\"},\\"activity\\":{\\"href\\":\\"https://api.bitbucket.org/2.0/repositories/test-team/test-repo/pullrequests/1338/activity\\"},\\"diff\\":{\\"href\\":\\"https://api.bitbucket.org/2.0/repositories/test-team/test-repo/pullrequests/1338/diff\\"},\\"approve\\":{\\"href\\":\\"https://api.bitbucket.org/2.0/repositories/test-team/test-repo/pullrequests/1338/approve\\"},\\"statuses\\":{\\"href\\":\\"https://api.bitbucket.org/2.0/repositories/test-team/test-repo/pullrequests/1338/statuses\\"}},\\"title\\":\\"Test pull request\\",\\"close_source_branch\\":false,\\"reviewers\\":[{\\"username\\":\\"reviewer1\\",\\"type\\":\\"user\\",\\"display_name\\":\\"Reviewer One\\",\\"uuid\\":\\"{reviewer1}\\",\\"links\\":{\\"self\\":{\\"href\\":\\"https://api.bitbucket.org/2.0/users/reviewer1\\"},\\"html\\":{\\"href\\":\\"https://bitbucket.org/reviewer1/\\"},\\"avatar\\":{\\"href\\":\\"https://bitbucket.org/account/reviewer1/avatar/32/\\"}}}],\\"destination\\":{\\"commit\\":{\\"hash\\":\\"750db4e482a8\\",\\"links\\":{\\"self\\":{\\"href\\":\\"https://api.bitbucket.org/2.0/repositories/test-team/test-repo/commit/750db4e482a8\\"}}},\\"repository\\":{\\"links\\":{\\"self\\":{\\"href\\":\\"https://api.bitbucket.org/2.0/repositories/test-team/test-repo\\"},\\"html\\":{\\"href\\":\\"https://bitbucket.org/test-team/test-repo\\"},\\"avatar\\":{\\"href\\":\\"https://bitbucket.org/test-team/test-repo/avatar/32/\\"}},\\"type\\":\\"repository\\",\\"name\\":\\"test-repo\\",\\"full_name\\":\\"test-team/test-repo\\",\\"uuid\\":\\"{test-repo-id}\\",\\"owner\\":{\\"username\\":\\"test-team\\",\\"display_name\\":\\"Test Team\\",\\"type\\":\\"team\\",\\"uuid\\":\\"{02b941e3-cfaa-40f9-9a58-cec53e20bdc3}\\",\\"links\\":{\\"self\\":{\\"href\\":\\"https://api.bitbucket.org/2.0/teams/test-team\\"},\\"html\\":{\\"href\\":\\"https://bitbucket.org/test-team/\\"},\\"avatar\\":{\\"href\\":\\"https://bitbucket.org/test-team/test-repo/avatar/32/\\"}}}},\\"branch\\":{\\"name\\":\\"master\\"}},\\"state\\":\\"OPEN\\",\\"summary\\":{\\"raw\\":\\"\\",\\"markup\\":\\"markdown\\",\\"html\\":\\"\\"},\\"source\\":{\\"commit\\":{\\"hash\\":\\"f215873d2c20\\",\\"links\\":{\\"self\\":{\\"href\\":\\"https://api.bitbucket.org/2.0/repositories/test-team/test-repo/commit/f215873d2c20\\"}}},\\"repository\\":{\\"links\\":{\\"self\\":{\\"href\\":\\"https://api.bitbucket.org/2.0/repositories/test-team/test-repo\\"},\\"html\\":{\\"href\\":\\"https://bitbucket.org/test-team/test-repo\\"},\\"avatar\\":{\\"href\\":\\"https://bitbucket.org/test-team/test-repo/avatar/32/\\"}},\\"type\\":\\"repository\\",\\"name\\":\\"test-repo\\",\\"full_name\\":\\"test-team/test-repo\\",\\"uuid\\":\\"{test-repo-id}\\"},\\"branch\\":{\\"name\\":\\"test-branch-with-very-long-name-12345-11111-22222-33333-44444\\"}},\\"comment_count\\":0,\\"author\\":{\\"username\\":\\"test-user\\",\\"display_name\\":\\"John Doe\\",\\"type\\":\\"user\\",\\"uuid\\":\\"prauthor\\",\\"links\\":{\\"self\\":{\\"href\\":\\"https://api.bitbucket.org/2.0/users/test-user\\"},\\"html\\":{\\"href\\":\\"https://bitbucket.org/test-user/\\"},\\"avatar\\":{\\"href\\":\\"https://bitbucket.org/account/test-user/avatar/32/\\"}}},\\"created_on\\":\\"2018-01-25T13:53:47.411686+00:00\\",\\"participants\\":[{\\"type\\":\\"participant\\",\\"approved\\":false,\\"role\\":\\"REVIEWER\\",\\"user\\":{\\"username\\":\\"reviewer1\\",\\"type\\":\\"user\\",\\"display_name\\":\\"Reviewer One\\",\\"uuid\\":\\"{reviewer1}\\",\\"links\\":{\\"self\\":{\\"href\\":\\"https://api.bitbucket.org/2.0/users/reviewer1\\"},\\"html\\":{\\"href\\":\\"https://bitbucket.org/reviewer1/\\"},\\"avatar\\":{\\"href\\":\\"https://bitbucket.org/account/reviewer1/avatar/32/\\"}}},\\"participated_on\\":null},{\\"type\\":\\"participant\\",\\"approved\\":false,\\"role\\":\\"REVIEWER\\",\\"user\\":{\\"username\\":\\"reviewer2\\",\\"type\\":\\"user\\",\\"display_name\\":\\"Reviewer Two\\",\\"uuid\\":\\"{reviewer2}\\",\\"links\\":{\\"self\\":{\\"href\\":\\"https://api.bitbucket.org/2.0/users/reviewer2\\"},\\"html\\":{\\"href\\":\\"https://bitbucket.org/reviewer2/\\"},\\"avatar\\":{\\"href\\":\\"https://bitbucket.org/account/reviewer2/avatar/32/\\"}}},\\"participated_on\\":null},{\\"type\\":\\"participant\\",\\"approved\\":true,\\"role\\":\\"PARTICIPANT\\",\\"user\\":{\\"username\\":\\"test-user\\",\\"type\\":\\"user\\",\\"display_name\\":\\"Test User\\",\\"uuid\\":\\"{test-user-id}\\",\\"links\\":{\\"self\\":{\\"href\\":\\"https://api.bitbucket.org/2.0/users/test-user\\"},\\"html\\":{\\"href\\":\\"https://bitbucket.org/test-user/\\"},\\"avatar\\":{\\"href\\":\\"https://bitbucket.org/account/test-user/avatar/32/\\"}}},\\"participated_on\\":\\"2018-02-06T09:48:05.796306+00:00\\"}],\\"reason\\":\\"\\",\\"updated_on\\":\\"2018-02-06T11:53:38.380309+00:00\\",\\"type\\":\\"pullrequest\\",\\"id\\":1338,\\"task_count\\":0},\\"comment\\":{\\"links\\":{\\"self\\":{\\"href\\":\\"https://api.bitbucket.org/2.0/repositories/someOwner/test-repo/pullrequests/3/comments/33333333\\"},\\"code\\":{\\"href\\":\\"https://api.bitbucket.org/2.0/repositories/someOwner/test-repo/diff/someOwner/test-repo:aec41f0d2518..8e1e9237a2a3?path=README.md\\"},\\"html\\":{\\"href\\":\\"https://bitbucket.org/someOwner/test-repo/pull-requests/3/_/diff#comment-33333333\\"}},\\"deleted\\":false,\\"pullrequest\\":{\\"type\\":\\"pullrequest\\",\\"id\\":3,\\"links\\":{\\"self\\":{\\"href\\":\\"https://api.bitbucket.org/2.0/repositories/someOwner/test-repo/pullrequests/3\\"},\\"html\\":{\\"href\\":\\"https://bitbucket.org/someOwner/test-repo/pull-requests/3\\"}},\\"title\\":\\"README.md edited online with Bitbucket\\"},\\"content\\":{\\"raw\\":\\"Important improvement!!!\\",\\"markup\\":\\"markdown\\",\\"html\\":\\"<p>Important improvement!!!</p>\\",\\"type\\":\\"rendered\\"},\\"created_on\\":\\"2018-06-12T08:26:02.599872+00:00\\",\\"user\\":{\\"username\\":\\"someOwner\\",\\"display_name\\":\\"Some Owner\\",\\"type\\":\\"user\\",\\"uuid\\":\\"{22222222-cccc-eeee-dddd-cccccccc2222}\\",\\"links\\":{\\"self\\":{\\"href\\":\\"https://api.bitbucket.org/2.0/users/someOwner\\"},\\"html\\":{\\"href\\":\\"https://bitbucket.org/someOwner/\\"},\\"avatar\\":{\\"href\\":\\"https://bitbucket.org/account/someOwner/avatar/32/\\"}}},\\"inline\\":{\\"to\\":2,\\"from\\":null,\\"path\\":\\"README.md\\"},\\"updated_on\\":\\"2018-06-12T08:26:02.609573+00:00\\",\\"type\\":\\"pullrequest_comment\\",\\"id\\":33333333}}",
                    },
                  },
                },
                "text": "Save Comment",
              },
            },
          ],
        },
      ],
    },
    Object {
      "widgets": Array [
        Object {
          "buttons": Array [
            Object {
              "textButton": Object {
                "onClick": Object {
                  "openLink": Object {
                    "url": "https://bitbucket.org/someOwner/test-repo/pull-requests/3/_/diff#comment-33333333",
                  },
                },
                "text": "View Comment In Bitbucket",
              },
            },
          ],
        },
      ],
    },
  ],
}
`;
