// Jest Snapshot v1, https://goo.gl/fbAQLP

exports[`View Pull Request Description Runs the render method and checks the data of used services 1`] = `
Object {
  "cardActions": Array [
    Object {
      "actionLabel": "Open in Bitbucket",
      "onClick": Object {
        "openLink": Object {
          "url": "https://bitbucket.org/test-team/test-repo/pull-requests/1338",
        },
      },
    },
  ],
  "header": Object {
    "subTitle": "Pull request #1338",
    "title": "Test pull request",
  },
  "sections": Array [
    Object {
      "header": "Description",
      "widgets": Array [
        Object {
          "text": "No description.",
        },
      ],
    },
    Object {
      "widgets": Array [
        Object {
          "buttons": Array [
            Object {
              "textButton": Object {
                "onClick": Object {
                  "openLink": Object {
                    "url": "https://bitbucket.org/test-team/test-repo/pull-requests/1338",
                  },
                },
                "text": "Open in Bitbucket",
              },
            },
          ],
        },
      ],
    },
  ],
}
`;
