// Jest Snapshot v1, https://goo.gl/fbAQLP

exports[`View PullRequest Merge Runs the render method and checks the data of used services 1`] = `
Object {
  "cardActions": Array [
    Object {
      "actionLabel": "Open in Bitbucket",
      "onClick": Object {
        "openLink": Object {
          "url": "https://bitbucket.org/test-team/test-repo/pull-requests/1338",
        },
      },
    },
  ],
  "header": Object {
    "imageUrl": "https://partner-engineering-cdn.atl-paas.net/icons/merge.png",
    "title": "Merge pull request",
  },
  "sections": Array [
    Object {
      "header": "<b>Branch</b>",
      "widgets": Array [
        Object {
          "keyValue": Object {
            "content": "test-branch-with-very-long-name-12345-11111-22222-33333-44444",
            "topLabel": "Source",
          },
        },
        Object {
          "keyValue": Object {
            "content": "master",
            "topLabel": "Destination",
          },
        },
      ],
    },
    Object {
      "header": "<b>Merge strategy</b>",
      "widgets": Array [
        Object {
          "items": Array [
            Object {
              "selected": true,
              "text": "Merge commit (git merge --no-ff)",
              "value": "merge_commit",
            },
            Object {
              "selected": false,
              "text": "Squash (git merge --squash)",
              "value": "squash",
            },
            Object {
              "selected": false,
              "text": "Fast forward (git merge --ff-only)",
              "value": "fast_forward",
            },
          ],
          "text": "mergeStrategy",
          "type": "RADIO_BUTTON",
        },
      ],
    },
    Object {
      "widgets": Array [
        Object {
          "items": Array [
            Object {
              "selected": false,
              "text": "Close source branch after merge",
              "value": "close",
            },
          ],
          "text": "closeSourceBranch",
          "type": "CHECK_BOX",
        },
      ],
    },
    Object {
      "widgets": Array [
        Object {
          "buttons": Array [
            Object {
              "textButton": Object {
                "onClick": Object {
                  "action": Object {
                    "actionMethodName": "dispatchAction",
                    "parameters": Object {
                      "actionName": "bitbucket.pullRequest.merge.Merge",
                      "args": "{\\"owner\\":\\"test-team\\",\\"repo\\":\\"test-repo\\",\\"id\\":1338}",
                    },
                  },
                },
                "text": "Merge",
              },
            },
            Object {
              "textButton": Object {
                "onClick": Object {
                  "action": Object {
                    "actionMethodName": "dispatchAction",
                    "parameters": Object {
                      "actionName": "addon.NavigateBack",
                      "args": "{}",
                    },
                  },
                },
                "text": "Cancel",
              },
            },
          ],
        },
      ],
    },
    Object {
      "widgets": Array [
        Object {
          "buttons": Array [
            Object {
              "textButton": Object {
                "onClick": Object {
                  "openLink": Object {
                    "url": "https://bitbucket.org/test-team/test-repo/pull-requests/1338",
                  },
                },
                "text": "Open in Bitbucket",
              },
            },
          ],
        },
      ],
    },
  ],
}
`;
