// Jest Snapshot v1, https://goo.gl/fbAQLP

exports[`View Team Runs the render method and checks the data of used services 1`] = `
Object {
  "cardActions": Array [
    Object {
      "actionLabel": "Open in Bitbucket",
      "onClick": Object {
        "openLink": Object {
          "url": "https://bitbucket.org/test-team/test-repo",
        },
      },
    },
  ],
  "header": Object {
    "imageUrl": "https://bitbucket.org/test-team/test-repo/avatar/32/",
    "title": "test-team",
  },
  "sections": Array [
    Object {
      "widgets": Array [
        Object {
          "buttons": Array [
            Object {
              "textButton": Object {
                "onClick": Object {
                  "openLink": Object {
                    "url": "https://bitbucket.org/test-team/test-repo",
                  },
                },
                "text": "Open in Bitbucket",
              },
            },
          ],
        },
      ],
    },
  ],
}
`;
